{
    "soc": "exynos7870",
    "copyright_year": 2015,
    "critical_clocks": [
        "clk_MIF_GATE_CLKCMU_PERI_BUS",
        "clk_MFCMSCL_MUX_CLKCMU_MFCMSCL_MSCL_USER",
        "clk_G3D_GATE_CLK_G3D_UID_ASYNC_G3D_P_IPCLKPORT_PCLKM",
        "clk_PERI_GATE_CLK_PERI_UID_GPIO_TOUCH_IPCLKPORT_PCLK",
        "clk_PERI_GATE_CLK_PERI_UID_GPIO_TOP_IPCLKPORT_PCLK",
        "clk_PERI_GATE_CLK_PERI_UID_GPIO_NFC_IPCLKPORT_PCLK",
        "clk_PERI_GATE_CLK_PERI_UID_GPIO_ESE_IPCLKPORT_PCLK",
        "clk_DISPAUD_GATE_CLK_DISPAUD_UID_CLKCMU_DISPAUD_BUS_DISP",
        "clk_DISPAUD_GATE_CLK_DISPAUD_UID_CLKCMU_DISPAUD_BUS",
        "clk_DISPAUD_GATE_CLK_DISPAUD_UID_DECON_IPCLKPORT_I_VCLK",
        "clk_MIF_MUXGATE_CLKCMU_DISPAUD_DECON_INT_ECLK",
        "clk_DISPAUD_MUX_CLKCMU_DISPAUD_DECON_INT_ECLK_USER",
        "clk_DISPAUD_GATE_CLK_DISPAUD_UID_DECON_IPCLKPORT_I_ECLK",
        "clk_DISPAUD_MUX_CLKPHY_DISPAUD_MIPIPHY_TXBYTECLKHS_USER",
        "clk_ISP_MUX_CLK_ISP_VRA",
        "clk_MIF_MUX_CLK_MIF_BUSD"
    ],
    "Comments (not parsed)": {
        "modem_clocks": [
            "clk_MIF_MUX_MEDIA_PLL"
        ],
        "mali_clocks": [
            "clk_G3D_GATE_CLK_G3D_UID_G3D_IPCLKPORT_CLK",
            "clk_G3D_GATE_CLK_G3D_UID_ASYNCS_D0_G3D_IPCLKPORT_I_CLK"
        ],
        "gpio_clocks": [
            "clk_PERI_GATE_CLK_PERI_UID_GPIO_TOUCH_IPCLKPORT_PCLK",
            "clk_PERI_GATE_CLK_PERI_UID_GPIO_TOP_IPCLKPORT_PCLK",
            "clk_PERI_GATE_CLK_PERI_UID_GPIO_NFC_IPCLKPORT_PCLK",
            "clk_PERI_GATE_CLK_PERI_UID_GPIO_ESE_IPCLKPORT_PCLK"
        ],
        "mmc_clocks": [
            "clk_FSYS_GATE_CLK_FSYS_UID_MMC0_IPCLKPORT_I_ACLK",
            "clk_FSYS_GATE_CLK_FSYS_UID_MMC1_IPCLKPORT_I_ACLK",
            "clk_FSYS_GATE_CLK_FSYS_UID_MMC2_IPCLKPORT_I_ACLK"
        ],
        "display_clocks": [
            "clk_MIF_MUXGATE_CLKCMU_DISPAUD_BUS",
            "clk_MIF_GATE_CLKCMU_DISPAUD_BUS",
            "clk_DISPAUD_MUX_CLKCMU_DISPAUD_BUS_USER",
            "clk_DISPAUD_GATE_CLK_DISPAUD_UID_CLKCMU_DISPAUD_BUS_DISP",
            "clk_DISPAUD_GATE_CLK_DISPAUD_UID_CLKCMU_DISPAUD_BUS",
            "clk_DISP_PLL",
            "clk_DISPAUD_MUX_CLK_DISPAUD_DECON_INT_VCLK",
            "clk_DISPAUD_GATE_CLK_DISPAUD_UID_DECON_IPCLKPORT_I_VCLK",
            "clk_MIF_MUXGATE_CLKCMU_DISPAUD_DECON_INT_ECLK",
            "clk_MIF_GATE_CLKCMU_DISPAUD_DECON_INT_ECLK",
            "clk_DISPAUD_MUX_CLKCMU_DISPAUD_DECON_INT_ECLK_USER",
            "clk_DISPAUD_GATE_CLK_DISPAUD_UID_DECON_IPCLKPORT_I_ECLK",
            "clk_DISPAUD_MUX_CLKPHY_DISPAUD_MIPIPHY_TXBYTECLKHS_USER"
        ],
        "display_refresh_clocks": [
            "clk_ISP_MUX_ISP_PLL",
            "clk_ISP_MUX_CLK_ISP_VRA"
        ],
        "usb_clocks": [
            "clk_FSYS_GATE_CLK_FSYS_UID_USB20DRD_IPCLKPORT_ACLK_HSDRD"
        ],
        "bluetooth_uart_clocks": [
            "clk_PERI_GATE_CLK_PERI_UID_UART_BTWIFIFM_IPCLKPORT_PCLK",
            "clk_PERI_GATE_CLK_PERI_UID_UART_BTWIFIFM_IPCLKPORT_EXT_UCLK",
            "clk_PERI_GATE_CLK_PERI_UID_BUSP1_PERIC0_IPCLKPORT_HCLK"
        ]
    }
}
